<?xml version="1.0" encoding="UTF-8" standalone="no"?>
<!-- Created with Inkscape (http://www.inkscape.org/) -->

<svg
   xmlns:dc="http://purl.org/dc/elements/1.1/"
   xmlns:cc="http://creativecommons.org/ns#"
   xmlns:rdf="http://www.w3.org/1999/02/22-rdf-syntax-ns#"
   xmlns:svg="http://www.w3.org/2000/svg"
   xmlns="http://www.w3.org/2000/svg"
   xmlns:sodipodi="http://sodipodi.sourceforge.net/DTD/sodipodi-0.dtd"
   xmlns:inkscape="http://www.inkscape.org/namespaces/inkscape"
   width="222.70375"
   height="222.68781"
   id="svg2"
   version="1.1"
   inkscape:version="0.48.4 r9939"
   sodipodi:docname="logo_pin.svg">
  <defs
     id="defs4">
    <filter
       inkscape:collect="always"
       id="filter3840"
       x="-0.10694229"
       width="1.2138846"
       y="-0.085157752"
       height="1.1703155"
       color-interpolation-filters="sRGB">
      <feGaussianBlur
         inkscape:collect="always"
         stdDeviation="3.8320988"
         id="feGaussianBlur3842" />
    </filter>
    <filter
       color-interpolation-filters="sRGB"
       inkscape:collect="always"
       id="filter3840-5"
       x="-0.10694229"
       width="1.2138846"
       y="-0.085157752"
       height="1.1703155">
      <feGaussianBlur
         inkscape:collect="always"
         stdDeviation="3.8320988"
         id="feGaussianBlur3842-8" />
    </filter>
  </defs>
  <sodipodi:namedview
     id="base"
     pagecolor="#ffffff"
     bordercolor="#666666"
     borderopacity="1.0"
     inkscape:pageopacity="0.0"
     inkscape:pageshadow="2"
     inkscape:zoom="2.8"
     inkscape:cx="72.108729"
     inkscape:cy="123.44474"
     inkscape:document-units="px"
     inkscape:current-layer="layer1"
     showgrid="false"
     inkscape:showpageshadow="false"
     inkscape:window-width="1920"
     inkscape:window-height="1025"
     inkscape:window-x="0"
     inkscape:window-y="27"
     inkscape:window-maximized="1"
     fit-margin-top="0"
     fit-margin-left="0"
     fit-margin-right="0"
     fit-margin-bottom="0" />
  <metadata
     id="metadata7">
    <rdf:RDF>
      <cc:Work
         rdf:about="">
        <dc:format>image/svg+xml</dc:format>
        <dc:type
           rdf:resource="http://purl.org/dc/dcmitype/StillImage" />
        <dc:title></dc:title>
      </cc:Work>
    </rdf:RDF>
  </metadata>
  <g
     inkscape:label="Calque 1"
     inkscape:groupmode="layer"
     id="layer1"
     transform="translate(-16.87811,-816.64857)">
    <g
       id="g3986"
       transform="matrix(-7.247491e-4,1.0167108,-1.0167108,7.247491e-4,1068.1006,797.2227)"
       style="stroke-width:2.95069242;stroke-miterlimit:4;stroke-dasharray:none">
      <path
         sodipodi:nodetypes="ccccccccccccccccccccc"
         transform="translate(0,796.36218)"
         inkscape:connector-curvature="0"
         id="path3004"
         d="M 20,20 20,33.5 30,47 20,60.5 30,74 20,87.5 30,101 20,114.5 30,128 20,141.5 30,155 20,168.5 30,182 20,195.5 30,209 20,222.5 20,236 150,236 236,128 150,20 z"
         style="fill:#5cb85c;fill-opacity:1;stroke:#000000;stroke-width:2.95069242;stroke-linecap:butt;stroke-linejoin:miter;stroke-miterlimit:4;stroke-opacity:1;stroke-dasharray:none" />
      <path
         sodipodi:nodetypes="ccccc"
         transform="translate(0,796.36218)"
         inkscape:connector-curvature="0"
         id="path3006"
         d="M 236,128 20,114.5 30,128 20,141.5 z"
         style="fill:#568a56;fill-opacity:1;stroke:#000000;stroke-width:2.95069242;stroke-linecap:butt;stroke-linejoin:bevel;stroke-miterlimit:4;stroke-opacity:1;stroke-dasharray:none" />
      <path
         sodipodi:nodetypes="cccc"
         inkscape:connector-curvature="0"
         id="path3010-3"
         d="m 150,1031.8622 0,-104.50002 86,-3.5 z"
         style="fill:#89dc89;fill-opacity:1;stroke:#000000;stroke-width:2.95069242;stroke-linecap:butt;stroke-linejoin:bevel;stroke-miterlimit:4;stroke-opacity:1;stroke-dasharray:none" />
      <path
         sodipodi:nodetypes="cccc"
         inkscape:connector-curvature="0"
         id="path3010"
         d="m 150,20 0,104 86,4 z"
         style="fill:#89dc89;fill-opacity:1;stroke:#000000;stroke-width:2.95069242;stroke-linecap:butt;stroke-linejoin:bevel;stroke-miterlimit:4;stroke-opacity:1;stroke-dasharray:none"
         transform="translate(0,796.36218)" />
      <path
         sodipodi:nodetypes="cccc"
         transform="translate(0,796.36218)"
         inkscape:connector-curvature="0"
         id="path3966"
         d="M 179,56.5 213.75,99.928571 179,97.071428 z"
         style="fill:#ffffff;fill-opacity:1;stroke:#000000;stroke-width:2.95069242;stroke-linecap:butt;stroke-linejoin:miter;stroke-miterlimit:4;stroke-opacity:1;stroke-dasharray:none" />
      <path
         sodipodi:nodetypes="cccc"
         inkscape:connector-curvature="0"
         id="path3966-1"
         d="M 179,995.86218 213.75,952.43361 179,955.29075 z"
         style="fill:#ffffff;fill-opacity:1;stroke:#000000;stroke-width:2.95069242;stroke-linecap:butt;stroke-linejoin:miter;stroke-miterlimit:4;stroke-opacity:1;stroke-dasharray:none" />
    </g>
  </g>
</svg>
